PMT CSV Files/tek0061ALL.csv

Model,MDO32
Firmware Version,1.12.15

Waveform Type,ANALOG
Point Format,Y
Horizontal Units,s
Horizontal Scale,1e-09
Horizontal Delay,4e-10
Sample Interval,4e-10
Record Length,1000
Gating,0.1% to 100.0%
Probe Attenuation,1
Vertical Units,V
Vertical Offset,0
Vertical Scale,0.05
Vertical Position,0.08
,
,
,
Label,
TIME,CH1
-1.996e-07,0
-1.992e-07,0.002
-1.988e-07,-0.002
-1.984e-07,-0.002
-1.980e-07,-0.00200781
-1.976e-07,-0.00200781
-1.972e-07,-7.8125e-06
-1.968e-07,-7.8125e-06
-1.964e-07,-0.002
-1.960e-07,-0.002
-1.956e-07,-0.004
-1.952e-07,-7.8125e-06
-1.948e-07,0
-1.944e-07,0.00199219
-1.940e-07,-7.8125e-06
-1.936e-07,-0.00400781
-1.932e-07,-0.004
-1.928e-07,-0.002
-1.924e-07,-0.00200781
-1.920e-07,-0.004
-1.916e-07,-0.00400781
-1.912e-07,-7.8125e-06
-1.908e-07,0.002
-1.904e-07,0.004
-1.900e-07,0.00199219
-1.896e-07,-7.8125e-06
-1.892e-07,-0.00400781
-1.888e-07,-0.00400781
-1.884e-07,-0.004
-1.880e-07,-0.00400781
-1.876e-07,-0.004
-1.872e-07,-0.00400781
-1.868e-07,-0.00400781
-1.864e-07,-0.002
-1.860e-07,-7.8125e-06
-1.856e-07,-7.8125e-06
-1.852e-07,-7.8125e-06
-1.848e-07,-0.00200781
-1.844e-07,-0.00200781
-1.840e-07,0
-1.836e-07,-0.00200781
-1.832e-07,-7.8125e-06
-1.828e-07,-0.00400781
-1.824e-07,-0.00400781
-1.820e-07,-0.00200781
-1.816e-07,-7.8125e-06
-1.812e-07,-7.8125e-06
-1.808e-07,0
-1.804e-07,-7.8125e-06
-1.800e-07,-0.002
-1.796e-07,0
-1.792e-07,0.002
-1.788e-07,0.00199219
-1.784e-07,-0.002
-1.780e-07,-0.004
-1.776e-07,-0.004
-1.772e-07,-0.00400781
-1.768e-07,-0.002
-1.764e-07,-0.00200781
-1.760e-07,-7.8125e-06
-1.756e-07,-7.8125e-06
-1.752e-07,0.002
-1.748e-07,0.002
-1.744e-07,-7.8125e-06
-1.740e-07,-7.8125e-06
-1.736e-07,-0.00400781
-1.732e-07,-0.004
-1.728e-07,-0.00400781
-1.724e-07,-0.00200781
-1.720e-07,-0.00200781
-1.716e-07,-0.002
-1.712e-07,-0.002
-1.708e-07,0.00199219
-1.704e-07,0.00199219
-1.700e-07,0.00199219
-1.696e-07,0
-1.692e-07,-0.002
-1.688e-07,-0.00200781
-1.684e-07,-0.00400781
-1.680e-07,-0.004
-1.676e-07,-0.00200781
-1.672e-07,0
-1.668e-07,0
-1.664e-07,-0.002
-1.660e-07,-0.00200781
-1.656e-07,-7.8125e-06
-1.652e-07,-7.8125e-06
-1.648e-07,0
-1.644e-07,0.002
-1.640e-07,0
-1.636e-07,-0.00200781
-1.632e-07,-0.00200781
-1.628e-07,-0.00200781
-1.624e-07,-0.004
-1.620e-07,-0.004
-1.616e-07,-0.00400781
-1.612e-07,-0.00200781
-1.608e-07,0.00199219
-1.604e-07,0.002
-1.600e-07,0
-1.596e-07,0
-1.592e-07,-7.8125e-06
-1.588e-07,0
-1.584e-07,-0.00400781
-1.580e-07,-0.00400781
-1.576e-07,-0.00400781
-1.572e-07,-0.00400781
-1.568e-07,-0.002
-1.564e-07,0
-1.560e-07,0.002
-1.556e-07,0.002
-1.552e-07,-7.8125e-06
-1.548e-07,0
-1.544e-07,0
-1.540e-07,0
-1.536e-07,-0.002
-1.532e-07,-0.00400781
-1.528e-07,-0.00400781
-1.524e-07,-0.002
-1.520e-07,-0.00200781
-1.516e-07,0
-1.512e-07,-0.00200781
-1.508e-07,0
-1.504e-07,-7.8125e-06
-1.500e-07,0
-1.496e-07,0
-1.492e-07,-7.8125e-06
-1.488e-07,0
-1.484e-07,-0.00400781
-1.480e-07,-0.00400781
-1.476e-07,-0.004
-1.472e-07,-0.004
-1.468e-07,-0.004
-1.464e-07,-0.004
-1.460e-07,-0.002
-1.456e-07,0.00199219
-1.452e-07,0.00199219
-1.448e-07,0.00199219
-1.444e-07,-7.8125e-06
-1.440e-07,0
-1.436e-07,-0.002
-1.432e-07,-0.00200781
-1.428e-07,-0.00200781
-1.424e-07,-0.00200781
-1.420e-07,-0.004
-1.416e-07,-0.00200781
-1.412e-07,-0.00200781
-1.408e-07,0.00199219
-1.404e-07,0
-1.400e-07,0
-1.396e-07,0
-1.392e-07,-0.00200781
-1.388e-07,0.00199219
-1.384e-07,-7.8125e-06
-1.380e-07,-0.00200781
-1.376e-07,-0.004
-1.372e-07,-0.00400781
-1.368e-07,-0.002
-1.364e-07,-0.00400781
-1.360e-07,-0.00200781
-1.356e-07,-0.002
-1.352e-07,-7.8125e-06
-1.348e-07,0
-1.344e-07,0.002
-1.340e-07,0.00199219
-1.336e-07,-0.002
-1.332e-07,-0.002
-1.328e-07,-0.00400781
-1.324e-07,-0.004
-1.320e-07,-0.00200781
-1.316e-07,-0.00200781
-1.312e-07,-0.002
-1.308e-07,0
-1.304e-07,0
-1.300e-07,0.002
-1.296e-07,0.00199219
-1.292e-07,-7.8125e-06
-1.288e-07,-0.002
-1.284e-07,-0.004
-1.280e-07,-0.004
-1.276e-07,-0.004
-1.272e-07,-0.00400781
-1.268e-07,-0.004
-1.264e-07,-0.00200781
-1.260e-07,0.002
-1.256e-07,0.002
-1.252e-07,0.00199219
-1.248e-07,0
-1.244e-07,-0.00200781
-1.240e-07,-0.00400781
-1.236e-07,-0.00200781
-1.232e-07,-0.004
-1.228e-07,-0.004
-1.224e-07,-0.002
-1.220e-07,-0.002
-1.216e-07,-0.002
-1.212e-07,-0.002
-1.208e-07,-7.8125e-06
-1.204e-07,-7.8125e-06
-1.200e-07,0
-1.196e-07,-0.002
-1.192e-07,0
-1.188e-07,-7.8125e-06
-1.184e-07,-7.8125e-06
-1.180e-07,-0.00400781
-1.176e-07,-0.00400781
-1.172e-07,-0.00400781
-1.168e-07,-0.00400781
-1.164e-07,-7.8125e-06
-1.160e-07,0.002
-1.156e-07,0.00199219
-1.152e-07,0.00199219
-1.148e-07,0.002
-1.144e-07,0
-1.140e-07,-0.002
-1.136e-07,-0.002
-1.132e-07,-0.00200781
-1.128e-07,-0.004
-1.124e-07,-0.004
-1.120e-07,-0.00200781
-1.116e-07,-7.8125e-06
-1.112e-07,-0.00200781
-1.108e-07,-0.002
-1.104e-07,-7.8125e-06
-1.100e-07,0
-1.096e-07,-7.8125e-06
-1.092e-07,0
-1.088e-07,0
-1.084e-07,-0.002
-1.080e-07,-0.004
-1.076e-07,-0.00400781
-1.072e-07,-0.00200781
-1.068e-07,-0.00200781
-1.064e-07,-0.00200781
-1.060e-07,-0.004
-1.056e-07,-0.002
-1.052e-07,-7.8125e-06
-1.048e-07,0.00199219
-1.044e-07,0.00199219
-1.040e-07,0
-1.036e-07,-0.002
-1.032e-07,-0.00200781
-1.028e-07,-0.00400781
-1.024e-07,-0.00400781
-1.020e-07,-0.00400781
-1.016e-07,-0.00400781
-1.012e-07,-0.00200781
-1.008e-07,-7.8125e-06
-1.004e-07,0.00199219
-1.000e-07,0
-9.960e-08,-0.002
-9.920e-08,-0.002
-9.880e-08,-0.00400781
-9.840e-08,-0.004
-9.800e-08,-0.00400781
-9.760e-08,-0.004
-9.720e-08,-0.00400781
-9.680e-08,-0.00200781
-9.640e-08,-0.00200781
-9.600e-08,0.00199219
-9.560e-08,0.002
-9.520e-08,0
-9.480e-08,-0.00200781
-9.440e-08,-0.00200781
-9.400e-08,-0.002
-9.360e-08,-0.00200781
-9.320e-08,-0.00200781
-9.280e-08,-0.002
-9.240e-08,-0.002
-9.200e-08,-7.8125e-06
-9.160e-08,-7.8125e-06
-9.120e-08,-7.8125e-06
-9.080e-08,-0.00400781
-9.040e-08,0
-9.000e-08,-7.8125e-06
-8.960e-08,0
-8.920e-08,0.002
-8.880e-08,-0.002
-8.840e-08,-0.002
-8.800e-08,-0.004
-8.760e-08,-0.00400781
-8.720e-08,-0.00400781
-8.680e-08,-0.004
-8.640e-08,-0.00400781
-8.600e-08,0
-8.560e-08,0
-8.520e-08,0
-8.480e-08,0.002
-8.440e-08,-7.8125e-06
-8.400e-08,-0.00200781
-8.360e-08,-0.004
-8.320e-08,-0.00200781
-8.280e-08,-0.004
-8.240e-08,-0.004
-8.200e-08,-0.004
-8.160e-08,-0.00400781
-8.120e-08,-0.002
-8.080e-08,-0.00200781
-8.040e-08,-0.002
-8.000e-08,0.00199219
-7.960e-08,0.002
-7.920e-08,0
-7.880e-08,-7.8125e-06
-7.840e-08,-0.002
-7.800e-08,-0.00200781
-7.760e-08,-0.004
-7.720e-08,-0.00400781
-7.680e-08,-0.004
-7.640e-08,-0.004
-7.600e-08,-0.004
-7.560e-08,-0.002
-7.520e-08,-7.8125e-06
-7.480e-08,0
-7.440e-08,0
-7.400e-08,0
-7.360e-08,-0.00200781
-7.320e-08,-0.00200781
-7.280e-08,-0.004
-7.240e-08,-0.00400781
-7.200e-08,-0.00400781
-7.160e-08,-0.00200781
-7.120e-08,0.002
-7.080e-08,0
-7.040e-08,0.00199219
-7.000e-08,0.00399219
-6.960e-08,0.00199219
-6.920e-08,-0.00200781
-6.880e-08,-0.00200781
-6.840e-08,-0.004
-6.800e-08,-0.00400781
-6.760e-08,-0.004
-6.720e-08,-0.002
-6.680e-08,-0.00200781
-6.640e-08,0.002
-6.600e-08,0.00199219
-6.560e-08,0
-6.520e-08,-0.002
-6.480e-08,-7.8125e-06
-6.440e-08,-7.8125e-06
-6.400e-08,-0.00400781
-6.360e-08,-0.00400781
-6.320e-08,-0.00200781
-6.280e-08,-0.002
-6.240e-08,-0.004
-6.200e-08,-0.002
-6.160e-08,-0.002
-6.120e-08,-0.00200781
-6.080e-08,-0.002
-6.040e-08,-0.00200781
-6.000e-08,0.00199219
-5.960e-08,0.002
-5.920e-08,0
-5.880e-08,-0.002
-5.840e-08,-0.002
-5.800e-08,-0.002
-5.760e-08,-0.00200781
-5.720e-08,-0.004
-5.680e-08,-0.004
-5.640e-08,-0.002
-5.600e-08,-0.00200781
-5.560e-08,0
-5.520e-08,0.002
-5.480e-08,-7.8125e-06
-5.440e-08,0
-5.400e-08,0
-5.360e-08,-0.002
-5.320e-08,0
-5.280e-08,-0.00200781
-5.240e-08,-0.004
-5.200e-08,-0.00200781
-5.160e-08,0
-5.120e-08,0
-5.080e-08,-7.8125e-06
-5.040e-08,0
-5.000e-08,-0.00200781
-4.960e-08,0
-4.920e-08,-0.002
-4.880e-08,-0.002
-4.840e-08,-0.00200781
-4.800e-08,-0.004
-4.760e-08,0
-4.720e-08,-0.00400781
-4.680e-08,-0.002
-4.640e-08,-0.00200781
-4.600e-08,-0.004
-4.560e-08,-0.00400781
-4.520e-08,-0.00200781
-4.480e-08,0
-4.440e-08,0.00199219
-4.400e-08,0
-4.360e-08,-0.00400781
-4.320e-08,-0.00400781
-4.280e-08,-0.004
-4.240e-08,-0.00400781
-4.200e-08,-0.004
-4.160e-08,-0.004
-4.120e-08,-7.8125e-06
-4.080e-08,0.00199219
-4.040e-08,-7.8125e-06
-4.000e-08,0.004
-3.960e-08,-7.8125e-06
-3.920e-08,-0.00200781
-3.880e-08,-0.002
-3.840e-08,-0.004
-3.800e-08,-0.00400781
-3.760e-08,-0.002
-3.720e-08,-0.00200781
-3.680e-08,-0.002
-3.640e-08,-7.8125e-06
-3.600e-08,0
-3.560e-08,0.00199219
-3.520e-08,0.002
-3.480e-08,-7.8125e-06
-3.440e-08,-0.00200781
-3.400e-08,-0.00200781
-3.360e-08,-0.00200781
-3.320e-08,-0.002
-3.280e-08,-0.00200781
-3.240e-08,-0.00400781
-3.200e-08,-0.004
-3.160e-08,-0.004
-3.120e-08,-7.8125e-06
-3.080e-08,-7.8125e-06
-3.040e-08,0
-3.000e-08,-7.8125e-06
-2.960e-08,-7.8125e-06
-2.920e-08,-7.8125e-06
-2.880e-08,-7.8125e-06
-2.840e-08,-7.8125e-06
-2.800e-08,-0.004
-2.760e-08,-0.004
-2.720e-08,-0.004
-2.680e-08,-0.00400781
-2.640e-08,-0.002
-2.600e-08,0
-2.560e-08,0.00199219
-2.520e-08,0.002
-2.480e-08,0.00199219
-2.440e-08,0
-2.400e-08,0
-2.360e-08,-0.00400781
-2.320e-08,-0.00400781
-2.280e-08,-0.00400781
-2.240e-08,-0.00400781
-2.200e-08,-0.00400781
-2.160e-08,-7.8125e-06
-2.120e-08,0
-2.080e-08,0
-2.040e-08,-7.8125e-06
-2.000e-08,0
-1.960e-08,-0.00200781
-1.920e-08,-7.8125e-06
-1.880e-08,-0.00200781
-1.840e-08,-0.004
-1.800e-08,-0.00400781
-1.760e-08,0
-1.720e-08,-0.00200781
-1.680e-08,-7.8125e-06
-1.640e-08,-0.002
-1.600e-08,-0.004
-1.560e-08,-0.002
-1.520e-08,-0.002
-1.480e-08,0
-1.440e-08,-7.8125e-06
-1.400e-08,0
-1.360e-08,-0.00200781
-1.320e-08,-0.004
-1.280e-08,-0.002
-1.240e-08,-0.00400781
-1.200e-08,-0.00400781
-1.160e-08,-0.00200781
-1.120e-08,-7.8125e-06
-1.080e-08,0.00199219
-1.040e-08,0.002
-1.000e-08,-7.8125e-06
-9.600e-09,-7.8125e-06
-9.200e-09,0
-8.800e-09,-0.004
-8.400e-09,-0.002
-8.000e-09,-0.00400781
-7.600e-09,-0.004
-7.200e-09,-0.004
-6.800e-09,-0.002
-6.400e-09,-0.00200781
-6.000e-09,-7.8125e-06
-5.600e-09,0.00199219
-5.200e-09,-0.00200781
-4.800e-09,-0.002
-4.400e-09,-0.00200781
-4.000e-09,0
-3.600e-09,-0.00200781
-3.200e-09,-0.00200781
-2.800e-09,-0.002
-2.400e-09,-0.002
-2.000e-09,-0.002
-1.600e-09,0
-1.200e-09,-0.004
-8.000e-10,-0.0140078
-4.000e-10,-0.0360078
0.000e+00,-0.0540078
4.000e-10,-0.054
8.000e-10,-0.0360078
1.200e-09,-0.018
1.600e-09,-0.008
2.000e-09,-0.00600781
2.400e-09,-0.00400781
2.800e-09,-0.00200781
3.200e-09,-0.00200781
3.600e-09,-0.00200781
4.000e-09,-0.002
4.400e-09,-7.8125e-06
4.800e-09,-7.8125e-06
5.200e-09,0.004
5.600e-09,0.00199219
6.000e-09,0.002
6.400e-09,-7.8125e-06
6.800e-09,-0.00200781
7.200e-09,-7.8125e-06
7.600e-09,-7.8125e-06
8.000e-09,-0.00200781
8.400e-09,-7.8125e-06
8.800e-09,-7.8125e-06
9.200e-09,0.002
9.600e-09,0
1.000e-08,-0.002
1.040e-08,-7.8125e-06
1.080e-08,0
1.120e-08,-0.00200781
1.160e-08,-0.002
1.200e-08,0
1.240e-08,-0.00200781
1.280e-08,-0.00200781
1.320e-08,-0.002
1.360e-08,-0.00200781
1.400e-08,-7.8125e-06
1.440e-08,-7.8125e-06
1.480e-08,0.00199219
1.520e-08,0.002
1.560e-08,0.002
1.600e-08,0.00199219
1.640e-08,-7.8125e-06
1.680e-08,-0.00400781
1.720e-08,-0.004
1.760e-08,-0.00200781
1.800e-08,-0.00400781
1.840e-08,-0.00200781
1.880e-08,-7.8125e-06
1.920e-08,0.002
1.960e-08,0.002
2.000e-08,0.004
2.040e-08,0
2.080e-08,-0.002
2.120e-08,-7.8125e-06
2.160e-08,-0.002
2.200e-08,-0.00200781
2.240e-08,-0.00400781
2.280e-08,-7.8125e-06
2.320e-08,0
2.360e-08,-7.8125e-06
2.400e-08,0.002
2.440e-08,0.004
2.480e-08,0.002
2.520e-08,0.00199219
2.560e-08,-7.8125e-06
2.600e-08,-0.00200781
2.640e-08,-0.00200781
2.680e-08,-0.002
2.720e-08,-7.8125e-06
2.760e-08,-7.8125e-06
2.800e-08,0.00199219
2.840e-08,-7.8125e-06
2.880e-08,0
2.920e-08,-7.8125e-06
2.960e-08,0.00199219
3.000e-08,-7.8125e-06
3.040e-08,-7.8125e-06
3.080e-08,0.002
3.120e-08,0.002
3.160e-08,-7.8125e-06
3.200e-08,-7.8125e-06
3.240e-08,-0.00200781
3.280e-08,-0.00200781
3.320e-08,-0.00200781
3.360e-08,0
3.400e-08,0
3.440e-08,0.002
3.480e-08,0.002
3.520e-08,0.00199219
3.560e-08,-7.8125e-06
3.600e-08,0
3.640e-08,0.00199219
3.680e-08,-7.8125e-06
3.720e-08,-0.002
3.760e-08,-0.004
3.800e-08,-0.00200781
3.840e-08,-0.004
3.880e-08,0.00199219
3.920e-08,0.00199219
3.960e-08,-7.8125e-06
4.000e-08,0.00199219
4.040e-08,-7.8125e-06
4.080e-08,0.002
4.120e-08,0.00199219
4.160e-08,-0.00200781
4.200e-08,-0.002
4.240e-08,-0.00200781
4.280e-08,0
4.320e-08,-7.8125e-06
4.360e-08,-0.00200781
4.400e-08,-0.002
4.440e-08,-7.8125e-06
4.480e-08,0.00199219
4.520e-08,0.004
4.560e-08,0.004
4.600e-08,0.00199219
4.640e-08,0
4.680e-08,-0.002
4.720e-08,-0.00200781
4.760e-08,-0.00200781
4.800e-08,-0.00200781
4.840e-08,-0.00400781
4.880e-08,-0.00200781
4.920e-08,0.002
4.960e-08,0.00599219
5.000e-08,0.006
5.040e-08,0.00199219
5.080e-08,0
5.120e-08,-0.002
5.160e-08,-0.00200781
5.200e-08,0
5.240e-08,0
5.280e-08,-0.00400781
5.320e-08,-0.004
5.360e-08,0
5.400e-08,0.002
5.440e-08,0.002
5.480e-08,0.00199219
5.520e-08,-7.8125e-06
5.560e-08,0
5.600e-08,-0.002
5.640e-08,0.002
5.680e-08,-0.00200781
5.720e-08,-0.002
5.760e-08,-0.00200781
5.800e-08,-7.8125e-06
5.840e-08,-0.00400781
5.880e-08,-7.8125e-06
5.920e-08,0
5.960e-08,-0.00200781
6.000e-08,-7.8125e-06
6.040e-08,-7.8125e-06
6.080e-08,0.002
6.120e-08,0
6.160e-08,-7.8125e-06
6.200e-08,0
6.240e-08,-0.00400781
6.280e-08,-0.00400781
6.320e-08,-0.002
6.360e-08,-0.00200781
6.400e-08,-0.00200781
6.440e-08,0
6.480e-08,0
6.520e-08,0
6.560e-08,0
6.600e-08,0
6.640e-08,-0.00200781
6.680e-08,-0.00400781
6.720e-08,-0.004
6.760e-08,-0.004
6.800e-08,-7.8125e-06
6.840e-08,-0.002
6.880e-08,-7.8125e-06
6.920e-08,0
6.960e-08,0.004
7.000e-08,0.004
7.040e-08,0.002
7.080e-08,0
7.120e-08,0.002
7.160e-08,0
7.200e-08,-0.00200781
7.240e-08,-0.00200781
7.280e-08,-0.002
7.320e-08,-0.00200781
7.360e-08,-0.002
7.400e-08,-0.004
7.440e-08,0
7.480e-08,-7.8125e-06
7.520e-08,0.002
7.560e-08,0.002
7.600e-08,-7.8125e-06
7.640e-08,-7.8125e-06
7.680e-08,-0.00200781
7.720e-08,-0.004
7.760e-08,-0.00400781
7.800e-08,-0.00400781
7.840e-08,-0.00400781
7.880e-08,-0.002
7.920e-08,0.004
7.960e-08,0.00599219
8.000e-08,0.00599219
8.040e-08,0.002
8.080e-08,0
8.120e-08,-0.002
8.160e-08,-0.004
8.200e-08,-0.004
8.240e-08,-0.00400781
8.280e-08,-0.00400781
8.320e-08,-0.002
8.360e-08,0
8.400e-08,0.00199219
8.440e-08,0.00199219
8.480e-08,0.002
8.520e-08,0
8.560e-08,-7.8125e-06
8.600e-08,0
8.640e-08,0
8.680e-08,-0.00400781
8.720e-08,-0.004
8.760e-08,-0.002
8.800e-08,0
8.840e-08,0
8.880e-08,-7.8125e-06
8.920e-08,-0.00200781
8.960e-08,-0.002
9.000e-08,0.00199219
9.040e-08,0.004
9.080e-08,0.00199219
9.120e-08,0.00199219
9.160e-08,0.002
9.200e-08,-0.002
9.240e-08,-0.00400781
9.280e-08,-0.00200781
9.320e-08,-0.002
9.360e-08,-0.004
9.400e-08,-0.00200781
9.440e-08,0
9.480e-08,-7.8125e-06
9.520e-08,0.00199219
9.560e-08,0.00199219
9.600e-08,-0.002
9.640e-08,-0.00200781
9.680e-08,0
9.720e-08,-0.00200781
9.760e-08,-0.00400781
9.800e-08,-0.00200781
9.840e-08,0
9.880e-08,-0.002
9.920e-08,-7.8125e-06
9.960e-08,-7.8125e-06
1.000e-07,0
1.004e-07,-0.002
1.008e-07,-7.8125e-06
1.012e-07,0
1.016e-07,-7.8125e-06
1.020e-07,-7.8125e-06
1.024e-07,-0.002
1.028e-07,-0.002
1.032e-07,-0.004
1.036e-07,-0.00200781
1.040e-07,-0.002
1.044e-07,-0.00400781
1.048e-07,-0.002
1.052e-07,-7.8125e-06
1.056e-07,0
1.060e-07,0.002
1.064e-07,0.00199219
1.068e-07,-0.004
1.072e-07,-0.00400781
1.076e-07,-0.00400781
1.080e-07,-0.00400781
1.084e-07,-0.002
1.088e-07,-0.00200781
1.092e-07,-7.8125e-06
1.096e-07,-7.8125e-06
1.100e-07,0.00399219
1.104e-07,0.006
1.108e-07,0.002
1.112e-07,-0.00400781
1.116e-07,-0.00200781
1.120e-07,-0.002
1.124e-07,-0.00200781
1.128e-07,-0.002
1.132e-07,-0.00200781
1.136e-07,-0.00200781
1.140e-07,0
1.144e-07,0.00199219
1.148e-07,0.004
1.152e-07,0.00199219
1.156e-07,-0.00200781
1.160e-07,-0.00200781
1.164e-07,-0.00400781
1.168e-07,-0.00200781
1.172e-07,0
1.176e-07,-0.002
1.180e-07,-0.00200781
1.184e-07,-0.00200781
1.188e-07,-0.002
1.192e-07,-0.002
1.196e-07,0
1.200e-07,0
1.204e-07,0
1.208e-07,0.00199219
1.212e-07,-0.002
1.216e-07,-7.8125e-06
1.220e-07,0
1.224e-07,-0.004
1.228e-07,-0.00400781
1.232e-07,-0.004
1.236e-07,-0.00200781
1.240e-07,-7.8125e-06
1.244e-07,-0.002
1.248e-07,-7.8125e-06
1.252e-07,0.002
1.256e-07,-7.8125e-06
1.260e-07,0
1.264e-07,-0.002
1.268e-07,-0.00400781
1.272e-07,-0.00400781
1.276e-07,-0.00400781
1.280e-07,-0.00400781
1.284e-07,-0.00200781
1.288e-07,-0.00200781
1.292e-07,-7.8125e-06
1.296e-07,-7.8125e-06
1.300e-07,0.002
1.304e-07,0.00399219
1.308e-07,0.00399219
1.312e-07,-0.002
1.316e-07,-0.00200781
1.320e-07,-0.00200781
1.324e-07,-0.00200781
1.328e-07,-0.00200781
1.332e-07,0
1.336e-07,-7.8125e-06
1.340e-07,0
1.344e-07,-7.8125e-06
1.348e-07,-0.002
1.352e-07,-7.8125e-06
1.356e-07,0.004
1.360e-07,0.002
1.364e-07,-0.002
1.368e-07,-0.00400781
1.372e-07,-0.00200781
1.376e-07,-0.004
1.380e-07,-0.00400781
1.384e-07,-0.004
1.388e-07,-0.00200781
1.392e-07,-0.00200781
1.396e-07,0.00199219
1.400e-07,0.00399219
1.404e-07,0.002
1.408e-07,-0.002
1.412e-07,-0.00200781
1.416e-07,-0.00200781
1.420e-07,-0.00200781
1.424e-07,-0.004
1.428e-07,-0.004
1.432e-07,-0.00400781
1.436e-07,-0.002
1.440e-07,0.002
1.444e-07,0.00199219
1.448e-07,0
1.452e-07,-7.8125e-06
1.456e-07,-7.8125e-06
1.460e-07,0
1.464e-07,-0.002
1.468e-07,-0.002
1.472e-07,-0.00400781
1.476e-07,-0.004
1.480e-07,-0.00200781
1.484e-07,-0.00200781
1.488e-07,-0.002
1.492e-07,-0.002
1.496e-07,-7.8125e-06
1.500e-07,-0.00200781
1.504e-07,-0.002
1.508e-07,0.002
1.512e-07,-7.8125e-06
1.516e-07,-0.00200781
1.520e-07,-0.00200781
1.524e-07,-0.002
1.528e-07,-0.004
1.532e-07,-0.00400781
1.536e-07,-0.00400781
1.540e-07,-0.00200781
1.544e-07,-0.002
1.548e-07,-7.8125e-06
1.552e-07,0.002
1.556e-07,0.002
1.560e-07,0.002
1.564e-07,-0.002
1.568e-07,-0.00200781
1.572e-07,-0.00200781
1.576e-07,-7.8125e-06
1.580e-07,-0.00400781
1.584e-07,-0.00400781
1.588e-07,-0.004
1.592e-07,-0.002
1.596e-07,-0.00200781
1.600e-07,0
1.604e-07,0
1.608e-07,-0.002
1.612e-07,-7.8125e-06
1.616e-07,0
1.620e-07,-0.002
1.624e-07,-0.00200781
1.628e-07,-0.00400781
1.632e-07,-0.00400781
1.636e-07,-0.00400781
1.640e-07,-0.00200781
1.644e-07,-0.002
1.648e-07,-7.8125e-06
1.652e-07,0.00199219
1.656e-07,0.004
1.660e-07,0.00199219
1.664e-07,-7.8125e-06
1.668e-07,-0.00400781
1.672e-07,-0.00400781
1.676e-07,-0.002
1.680e-07,-0.004
1.684e-07,-0.006
1.688e-07,-0.00400781
1.692e-07,-7.8125e-06
1.696e-07,0
1.700e-07,0.00199219
1.704e-07,0.002
1.708e-07,0.002
1.712e-07,-7.8125e-06
1.716e-07,-0.004
1.720e-07,-0.004
1.724e-07,-0.004
1.728e-07,-0.00400781
1.732e-07,-0.004
1.736e-07,-0.00200781
1.740e-07,-7.8125e-06
1.744e-07,-7.8125e-06
1.748e-07,0.00199219
1.752e-07,0.00199219
1.756e-07,-7.8125e-06
1.760e-07,-7.8125e-06
1.764e-07,-0.00400781
1.768e-07,-0.004
1.772e-07,-0.00400781
1.776e-07,-0.002
1.780e-07,0
1.784e-07,-0.00400781
1.788e-07,-0.00200781
1.792e-07,-0.002
1.796e-07,-0.002
1.800e-07,-0.00200781
1.804e-07,0.002
1.808e-07,-7.8125e-06
1.812e-07,0
1.816e-07,0
1.820e-07,-0.002
1.824e-07,-0.004
1.828e-07,-0.00400781
1.832e-07,-0.00400781
1.836e-07,-0.004
1.840e-07,-0.002
1.844e-07,-7.8125e-06
1.848e-07,0
1.852e-07,0
1.856e-07,0
1.860e-07,0
1.864e-07,-7.8125e-06
1.868e-07,0
1.872e-07,-0.00200781
1.876e-07,-0.004
1.880e-07,-0.00400781
1.884e-07,-0.004
1.888e-07,-0.00400781
1.892e-07,-0.002
1.896e-07,-0.002
1.900e-07,-7.8125e-06
1.904e-07,0
1.908e-07,0
1.912e-07,0.002
1.916e-07,-7.8125e-06
1.920e-07,-0.004
1.924e-07,-0.004
1.928e-07,-0.00400781
1.932e-07,-0.00200781
1.936e-07,-7.8125e-06
1.940e-07,-0.004
1.944e-07,-0.004
1.948e-07,-0.004
1.952e-07,0
1.956e-07,0.00199219
1.960e-07,0.002
1.964e-07,0
1.968e-07,-0.00400781
1.972e-07,-0.00600781
1.976e-07,-0.004
1.980e-07,-0.00200781
1.984e-07,-0.00400781
1.988e-07,-0.004
1.992e-07,-0.00200781
1.996e-07,0
2.000e-07,0.002

