PMT CSV Files/tek0086ALL.csv

Model,MDO32
Firmware Version,1.12.15

Waveform Type,ANALOG
Point Format,Y
Horizontal Units,s
Horizontal Scale,1e-09
Horizontal Delay,4e-10
Sample Interval,4e-10
Record Length,1000
Gating,0.1% to 100.0%
Probe Attenuation,1
Vertical Units,V
Vertical Offset,0
Vertical Scale,0.05
Vertical Position,0.08
,
,
,
Label,
TIME,CH1
-1.996e-07,-0.00400781
-1.992e-07,-0.00400781
-1.988e-07,-0.00400781
-1.984e-07,0
-1.980e-07,0.00199219
-1.976e-07,0.002
-1.972e-07,-7.8125e-06
-1.968e-07,0.00199219
-1.964e-07,-7.8125e-06
-1.960e-07,-0.002
-1.956e-07,-0.00200781
-1.952e-07,-0.004
-1.948e-07,-0.00400781
-1.944e-07,-0.00200781
-1.940e-07,-0.004
-1.936e-07,-0.00200781
-1.932e-07,-7.8125e-06
-1.928e-07,-7.8125e-06
-1.924e-07,-7.8125e-06
-1.920e-07,0.00199219
-1.916e-07,-7.8125e-06
-1.912e-07,-7.8125e-06
-1.908e-07,-0.00400781
-1.904e-07,-0.004
-1.900e-07,-0.004
-1.896e-07,-0.002
-1.892e-07,-0.00400781
-1.888e-07,-0.00400781
-1.884e-07,-0.002
-1.880e-07,-0.002
-1.876e-07,0
-1.872e-07,0.00199219
-1.868e-07,0.00199219
-1.864e-07,0.002
-1.860e-07,-0.002
-1.856e-07,-0.004
-1.852e-07,-0.004
-1.848e-07,-0.004
-1.844e-07,-0.00200781
-1.840e-07,-0.00200781
-1.836e-07,-7.8125e-06
-1.832e-07,-7.8125e-06
-1.828e-07,0.002
-1.824e-07,0.00199219
-1.820e-07,-0.002
-1.816e-07,-0.00200781
-1.812e-07,-0.004
-1.808e-07,-0.004
-1.804e-07,-0.00400781
-1.800e-07,-0.002
-1.796e-07,-0.00200781
-1.792e-07,-0.002
-1.788e-07,-7.8125e-06
-1.784e-07,-7.8125e-06
-1.780e-07,0
-1.776e-07,-0.00200781
-1.772e-07,-0.00200781
-1.768e-07,-0.002
-1.764e-07,-0.004
-1.760e-07,-0.00200781
-1.756e-07,-0.00200781
-1.752e-07,-0.00200781
-1.748e-07,-0.002
-1.744e-07,-0.002
-1.740e-07,-0.00200781
-1.736e-07,-0.002
-1.732e-07,-0.00200781
-1.728e-07,-0.00400781
-1.724e-07,-7.8125e-06
-1.720e-07,-7.8125e-06
-1.716e-07,0.002
-1.712e-07,0.002
-1.708e-07,-0.002
-1.704e-07,-0.004
-1.700e-07,-0.004
-1.696e-07,-0.00400781
-1.692e-07,-0.00400781
-1.688e-07,-0.00200781
-1.684e-07,-0.002
-1.680e-07,0
-1.676e-07,-7.8125e-06
-1.672e-07,-7.8125e-06
-1.668e-07,-7.8125e-06
-1.664e-07,-0.00200781
-1.660e-07,-0.002
-1.656e-07,-0.002
-1.652e-07,-0.00400781
-1.648e-07,-0.00400781
-1.644e-07,-0.004
-1.640e-07,-0.002
-1.636e-07,-0.002
-1.632e-07,-0.002
-1.628e-07,-7.8125e-06
-1.624e-07,0
-1.620e-07,-7.8125e-06
-1.616e-07,0
-1.612e-07,-0.002
-1.608e-07,-0.00200781
-1.604e-07,-0.00200781
-1.600e-07,-0.00400781
-1.596e-07,-0.00200781
-1.592e-07,-0.004
-1.588e-07,-0.00200781
-1.584e-07,-0.00200781
-1.580e-07,0
-1.576e-07,0
-1.572e-07,0
-1.568e-07,0.00199219
-1.564e-07,-7.8125e-06
-1.560e-07,-0.002
-1.556e-07,-0.00400781
-1.552e-07,-0.00400781
-1.548e-07,-0.002
-1.544e-07,-0.00400781
-1.540e-07,-0.00200781
-1.536e-07,0
-1.532e-07,0
-1.528e-07,-7.8125e-06
-1.524e-07,-7.8125e-06
-1.520e-07,-0.00200781
-1.516e-07,0
-1.512e-07,0
-1.508e-07,0
-1.504e-07,-0.004
-1.500e-07,-0.00400781
-1.496e-07,-0.004
-1.492e-07,-0.002
-1.488e-07,0
-1.484e-07,0
-1.480e-07,0
-1.476e-07,0
-1.472e-07,-7.8125e-06
-1.468e-07,-0.002
-1.464e-07,0
-1.460e-07,-0.002
-1.456e-07,-0.004
-1.452e-07,-0.004
-1.448e-07,-0.004
-1.444e-07,-0.00400781
-1.440e-07,-0.004
-1.436e-07,-0.004
-1.432e-07,-0.00400781
-1.428e-07,0
-1.424e-07,0.002
-1.420e-07,0.00199219
-1.416e-07,0
-1.412e-07,-0.00200781
-1.408e-07,-0.004
-1.404e-07,-0.00200781
-1.400e-07,-0.004
-1.396e-07,-0.00400781
-1.392e-07,-0.00400781
-1.388e-07,-0.00400781
-1.384e-07,0
-1.380e-07,0.00199219
-1.376e-07,0.00199219
-1.372e-07,0
-1.368e-07,-7.8125e-06
-1.364e-07,-0.002
-1.360e-07,-0.002
-1.356e-07,-0.002
-1.352e-07,-0.00400781
-1.348e-07,-0.00400781
-1.344e-07,-0.004
-1.340e-07,-0.004
-1.336e-07,-0.00200781
-1.332e-07,0
-1.328e-07,-7.8125e-06
-1.324e-07,-7.8125e-06
-1.320e-07,-7.8125e-06
-1.316e-07,-0.00200781
-1.312e-07,-0.002
-1.308e-07,-0.00400781
-1.304e-07,-0.00400781
-1.300e-07,-0.00400781
-1.296e-07,-0.002
-1.292e-07,-0.00200781
-1.288e-07,-0.002
-1.284e-07,-0.002
-1.280e-07,-0.002
-1.276e-07,-7.8125e-06
-1.272e-07,-0.002
-1.268e-07,0
-1.264e-07,-7.8125e-06
-1.260e-07,-0.002
-1.256e-07,-0.00200781
-1.252e-07,-0.00400781
-1.248e-07,-0.00400781
-1.244e-07,-0.002
-1.240e-07,-0.00400781
-1.236e-07,-0.002
-1.232e-07,0.002
-1.228e-07,0.004
-1.224e-07,0
-1.220e-07,0
-1.216e-07,0
-1.212e-07,-0.002
-1.208e-07,-0.002
-1.204e-07,-0.002
-1.200e-07,-0.00400781
-1.196e-07,0
-1.192e-07,-0.00200781
-1.188e-07,-0.00200781
-1.184e-07,0
-1.180e-07,0.00199219
-1.176e-07,0.00199219
-1.172e-07,0
-1.168e-07,-0.002
-1.164e-07,-0.00400781
-1.160e-07,-0.00200781
-1.156e-07,-0.002
-1.152e-07,-0.00200781
-1.148e-07,-0.00200781
-1.144e-07,-0.002
-1.140e-07,-0.002
-1.136e-07,-0.002
-1.132e-07,-7.8125e-06
-1.128e-07,-0.002
-1.124e-07,-7.8125e-06
-1.120e-07,-7.8125e-06
-1.116e-07,-7.8125e-06
-1.112e-07,-0.002
-1.108e-07,-0.002
-1.104e-07,-0.00400781
-1.100e-07,-0.00400781
-1.096e-07,-0.004
-1.092e-07,-0.00400781
-1.088e-07,-0.00400781
-1.084e-07,0
-1.080e-07,0.00199219
-1.076e-07,0
-1.072e-07,-7.8125e-06
-1.068e-07,-0.00200781
-1.064e-07,-0.00200781
-1.060e-07,0
-1.056e-07,-0.00200781
-1.052e-07,-0.00400781
-1.048e-07,-0.00400781
-1.044e-07,-0.00200781
-1.040e-07,-0.00200781
-1.036e-07,-0.00200781
-1.032e-07,0
-1.028e-07,-7.8125e-06
-1.024e-07,0.002
-1.020e-07,0.002
-1.016e-07,0.00199219
-1.012e-07,0.00199219
-1.008e-07,0
-1.004e-07,-0.00200781
-1.000e-07,-0.004
-9.960e-08,-0.004
-9.920e-08,-0.002
-9.880e-08,-0.004
-9.840e-08,-0.004
-9.800e-08,-0.00200781
-9.760e-08,0.002
-9.720e-08,0.00199219
-9.680e-08,0.002
-9.640e-08,-7.8125e-06
-9.600e-08,-7.8125e-06
-9.560e-08,-0.00200781
-9.520e-08,-0.002
-9.480e-08,-0.00400781
-9.440e-08,-0.004
-9.400e-08,-0.002
-9.360e-08,-0.002
-9.320e-08,0
-9.280e-08,0.002
-9.240e-08,0
-9.200e-08,-7.8125e-06
-9.160e-08,0
-9.120e-08,0
-9.080e-08,-0.002
-9.040e-08,-0.00400781
-9.000e-08,-0.004
-8.960e-08,-0.00400781
-8.920e-08,-0.004
-8.880e-08,-0.00200781
-8.840e-08,0.002
-8.800e-08,0.002
-8.760e-08,-7.8125e-06
-8.720e-08,-0.002
-8.680e-08,-0.002
-8.640e-08,-0.002
-8.600e-08,-0.00200781
-8.560e-08,-0.00200781
-8.520e-08,-0.00400781
-8.480e-08,-0.00400781
-8.440e-08,-0.002
-8.400e-08,-7.8125e-06
-8.360e-08,0
-8.320e-08,-0.00200781
-8.280e-08,0
-8.240e-08,0
-8.200e-08,0.002
-8.160e-08,-7.8125e-06
-8.120e-08,-0.00200781
-8.080e-08,-0.00400781
-8.040e-08,-0.00200781
-8.000e-08,-0.00200781
-7.960e-08,-0.00200781
-7.920e-08,-0.00400781
-7.880e-08,-0.00200781
-7.840e-08,-0.00200781
-7.800e-08,-7.8125e-06
-7.760e-08,0.002
-7.720e-08,-7.8125e-06
-7.680e-08,-7.8125e-06
-7.640e-08,-0.00200781
-7.600e-08,-0.004
-7.560e-08,-0.00400781
-7.520e-08,-7.8125e-06
-7.480e-08,-0.00200781
-7.440e-08,-0.002
-7.400e-08,-0.00400781
-7.360e-08,-0.00200781
-7.320e-08,-0.002
-7.280e-08,-7.8125e-06
-7.240e-08,0
-7.200e-08,-7.8125e-06
-7.160e-08,-7.8125e-06
-7.120e-08,0
-7.080e-08,-0.00200781
-7.040e-08,-0.002
-7.000e-08,-0.00200781
-6.960e-08,-0.004
-6.920e-08,-0.004
-6.880e-08,-0.004
-6.840e-08,-0.002
-6.800e-08,-0.002
-6.760e-08,-7.8125e-06
-6.720e-08,-7.8125e-06
-6.680e-08,0
-6.640e-08,0.002
-6.600e-08,-0.00200781
-6.560e-08,-0.00400781
-6.520e-08,-0.004
-6.480e-08,-0.004
-6.440e-08,-0.004
-6.400e-08,-0.002
-6.360e-08,-0.004
-6.320e-08,0
-6.280e-08,0.00199219
-6.240e-08,0.00199219
-6.200e-08,0.004
-6.160e-08,0
-6.120e-08,-7.8125e-06
-6.080e-08,-0.002
-6.040e-08,-0.004
-6.000e-08,-0.004
-5.960e-08,-0.00200781
-5.920e-08,-0.002
-5.880e-08,-0.00200781
-5.840e-08,0
-5.800e-08,-0.002
-5.760e-08,0
-5.720e-08,0
-5.680e-08,0
-5.640e-08,0
-5.600e-08,-0.00200781
-5.560e-08,-0.002
-5.520e-08,-0.002
-5.480e-08,-0.002
-5.440e-08,-0.00400781
-5.400e-08,-0.00200781
-5.360e-08,-0.00200781
-5.320e-08,-0.002
-5.280e-08,-0.002
-5.240e-08,0.00199219
-5.200e-08,-7.8125e-06
-5.160e-08,-7.8125e-06
-5.120e-08,-0.002
-5.080e-08,-0.002
-5.040e-08,-0.00200781
-5.000e-08,-0.00400781
-4.960e-08,-0.004
-4.920e-08,-0.006
-4.880e-08,-0.002
-4.840e-08,-0.002
-4.800e-08,-7.8125e-06
-4.760e-08,0.002
-4.720e-08,0.002
-4.680e-08,-7.8125e-06
-4.640e-08,0
-4.600e-08,0
-4.560e-08,-0.00200781
-4.520e-08,-0.00400781
-4.480e-08,-0.004
-4.440e-08,-0.004
-4.400e-08,-0.00200781
-4.360e-08,0
-4.320e-08,-7.8125e-06
-4.280e-08,-7.8125e-06
-4.240e-08,0
-4.200e-08,-7.8125e-06
-4.160e-08,0
-4.120e-08,-0.002
-4.080e-08,-7.8125e-06
-4.040e-08,-0.002
-4.000e-08,-0.004
-3.960e-08,-0.002
-3.920e-08,-0.00200781
-3.880e-08,-0.004
-3.840e-08,-0.004
-3.800e-08,-0.002
-3.760e-08,-7.8125e-06
-3.720e-08,0.004
-3.680e-08,0.00199219
-3.640e-08,-7.8125e-06
-3.600e-08,-0.002
-3.560e-08,-0.00200781
-3.520e-08,-0.004
-3.480e-08,-0.004
-3.440e-08,-0.00200781
-3.400e-08,-0.00400781
-3.360e-08,-0.00200781
-3.320e-08,-7.8125e-06
-3.280e-08,-7.8125e-06
-3.240e-08,0.004
-3.200e-08,-7.8125e-06
-3.160e-08,-0.00200781
-3.120e-08,-0.00200781
-3.080e-08,-0.00200781
-3.040e-08,-0.004
-3.000e-08,-0.002
-2.960e-08,-0.002
-2.920e-08,-0.002
-2.880e-08,-0.00200781
-2.840e-08,-7.8125e-06
-2.800e-08,0.00199219
-2.760e-08,0
-2.720e-08,-0.002
-2.680e-08,-0.00200781
-2.640e-08,-7.8125e-06
-2.600e-08,0
-2.560e-08,-0.002
-2.520e-08,-0.00200781
-2.480e-08,-0.004
-2.440e-08,-0.00200781
-2.400e-08,-0.004
-2.360e-08,-0.00200781
-2.320e-08,-0.002
-2.280e-08,-0.00200781
-2.240e-08,-0.00200781
-2.200e-08,-0.002
-2.160e-08,0
-2.120e-08,0
-2.080e-08,0.00199219
-2.040e-08,-0.00200781
-2.000e-08,-0.00400781
-1.960e-08,-0.004
-1.920e-08,-0.004
-1.880e-08,-0.00400781
-1.840e-08,-0.002
-1.800e-08,-7.8125e-06
-1.760e-08,0
-1.720e-08,0.002
-1.680e-08,0.00199219
-1.640e-08,-0.002
-1.600e-08,-7.8125e-06
-1.560e-08,-0.004
-1.520e-08,-0.004
-1.480e-08,-0.004
-1.440e-08,-0.00400781
-1.400e-08,-0.00200781
-1.360e-08,-0.002
-1.320e-08,-7.8125e-06
-1.280e-08,-0.00200781
-1.240e-08,0
-1.200e-08,0.00199219
-1.160e-08,0.00199219
-1.120e-08,-7.8125e-06
-1.080e-08,-0.004
-1.040e-08,-0.002
-1.000e-08,-0.004
-9.600e-09,-0.004
-9.200e-09,-0.002
-8.800e-09,-0.00400781
-8.400e-09,-0.00400781
-8.000e-09,-0.002
-7.600e-09,0
-7.200e-09,0.004
-6.800e-09,0.004
-6.400e-09,0.00199219
-6.000e-09,0
-5.600e-09,-0.00400781
-5.200e-09,-0.00400781
-4.800e-09,-0.00400781
-4.400e-09,-0.00400781
-4.000e-09,-0.00400781
-3.600e-09,-0.00200781
-3.200e-09,-7.8125e-06
-2.800e-09,0.002
-2.400e-09,0.002
-2.000e-09,0.002
-1.600e-09,-7.8125e-06
-1.200e-09,-0.00200781
-8.000e-10,-0.00400781
-4.000e-10,-0.014
0.000e+00,-0.0400078
4.000e-10,-0.09
8.000e-10,-0.128
1.200e-09,-0.126
1.600e-09,-0.0840078
2.000e-09,-0.0320078
2.400e-09,-0.006
2.800e-09,0.00199219
3.200e-09,0.00399219
3.600e-09,0.00199219
4.000e-09,0
4.400e-09,-7.8125e-06
4.800e-09,-0.00200781
5.200e-09,-0.002
5.600e-09,0
6.000e-09,0.002
6.400e-09,0.00199219
6.800e-09,-7.8125e-06
7.200e-09,0
7.600e-09,0.004
8.000e-09,0.00799219
8.400e-09,0.00599219
8.800e-09,0.004
9.200e-09,0.002
9.600e-09,0
1.000e-08,-0.00400781
1.040e-08,-0.004
1.080e-08,-0.00800781
1.120e-08,-0.006
1.160e-08,-0.002
1.200e-08,0.002
1.240e-08,0.00199219
1.280e-08,0.004
1.320e-08,0.006
1.360e-08,0.00199219
1.400e-08,0
1.440e-08,-7.8125e-06
1.480e-08,-0.00200781
1.520e-08,-0.00200781
1.560e-08,-0.00200781
1.600e-08,-0.00400781
1.640e-08,0
1.680e-08,0.00199219
1.720e-08,0.00399219
1.760e-08,0.00199219
1.800e-08,0.002
1.840e-08,0.002
1.880e-08,0.002
1.920e-08,-7.8125e-06
1.960e-08,0
2.000e-08,0
2.040e-08,-7.8125e-06
2.080e-08,0
2.120e-08,-7.8125e-06
2.160e-08,0
2.200e-08,-0.00200781
2.240e-08,0
2.280e-08,0.00199219
2.320e-08,0.004
2.360e-08,0.00599219
2.400e-08,0.00199219
2.440e-08,0.002
2.480e-08,-0.002
2.520e-08,0
2.560e-08,0
2.600e-08,-7.8125e-06
2.640e-08,0.002
2.680e-08,-7.8125e-06
2.720e-08,0.00399219
2.760e-08,0.00799219
2.800e-08,0.00599219
2.840e-08,0.004
2.880e-08,0.002
2.920e-08,-7.8125e-06
2.960e-08,-0.00200781
3.000e-08,0
3.040e-08,0
3.080e-08,0
3.120e-08,0.00199219
3.160e-08,0.00199219
3.200e-08,0.00599219
3.240e-08,0.006
3.280e-08,0.00399219
3.320e-08,0.004
3.360e-08,0
3.400e-08,0.002
3.440e-08,-7.8125e-06
3.480e-08,0.002
3.520e-08,0.002
3.560e-08,-7.8125e-06
3.600e-08,0
3.640e-08,0
3.680e-08,-7.8125e-06
3.720e-08,0.00199219
3.760e-08,-7.8125e-06
3.800e-08,0.004
3.840e-08,0.00399219
3.880e-08,0.006
3.920e-08,0.006
3.960e-08,0.002
4.000e-08,-0.00200781
4.040e-08,0
4.080e-08,-7.8125e-06
4.120e-08,-7.8125e-06
4.160e-08,0.00199219
4.200e-08,0.00199219
4.240e-08,0.004
4.280e-08,0.00599219
4.320e-08,0.004
4.360e-08,0.00199219
4.400e-08,0.00399219
4.440e-08,-7.8125e-06
4.480e-08,0
4.520e-08,0
4.560e-08,0
4.600e-08,0
4.640e-08,0.002
4.680e-08,0
4.720e-08,0.00199219
4.760e-08,0.002
4.800e-08,0.00199219
4.840e-08,0.004
4.880e-08,0.00399219
4.920e-08,0.00199219
4.960e-08,0.00199219
5.000e-08,-0.002
5.040e-08,-0.00200781
5.080e-08,-7.8125e-06
5.120e-08,-0.002
5.160e-08,0
5.200e-08,-7.8125e-06
5.240e-08,0.00399219
5.280e-08,0.00599219
5.320e-08,0.00599219
5.360e-08,0.006
5.400e-08,0.004
5.440e-08,0.00199219
5.480e-08,-7.8125e-06
5.520e-08,-0.00200781
5.560e-08,-0.002
5.600e-08,-0.00200781
5.640e-08,-7.8125e-06
5.680e-08,0.002
5.720e-08,0.006
5.760e-08,0.008
5.800e-08,0.00599219
5.840e-08,0
5.880e-08,0
5.920e-08,-7.8125e-06
5.960e-08,-0.00200781
6.000e-08,-0.002
6.040e-08,0
6.080e-08,-0.002
6.120e-08,0.002
6.160e-08,0.002
6.200e-08,0.00399219
6.240e-08,0.00199219
6.280e-08,0.002
6.320e-08,0
6.360e-08,0
6.400e-08,0.00199219
6.440e-08,0.002
6.480e-08,-7.8125e-06
6.520e-08,0
6.560e-08,-7.8125e-06
6.600e-08,0
6.640e-08,-7.8125e-06
6.680e-08,0
6.720e-08,-7.8125e-06
6.760e-08,0
6.800e-08,0.00199219
6.840e-08,0.004
6.880e-08,0.004
6.920e-08,0.002
6.960e-08,-7.8125e-06
7.000e-08,-0.004
7.040e-08,-0.002
7.080e-08,0
7.120e-08,0
7.160e-08,0
7.200e-08,-7.8125e-06
7.240e-08,0.00199219
7.280e-08,0.00399219
7.320e-08,0.00199219
7.360e-08,0.00199219
7.400e-08,-7.8125e-06
7.440e-08,-7.8125e-06
7.480e-08,-0.00200781
7.520e-08,0
7.560e-08,0
7.600e-08,0.00199219
7.640e-08,-7.8125e-06
7.680e-08,-0.00200781
7.720e-08,0
7.760e-08,0.00199219
7.800e-08,0.00199219
7.840e-08,0.002
7.880e-08,0.002
7.920e-08,0.00199219
7.960e-08,-7.8125e-06
8.000e-08,0
8.040e-08,-0.00200781
8.080e-08,-0.002
8.120e-08,-0.002
8.160e-08,-0.002
8.200e-08,0
8.240e-08,0
8.280e-08,0.00199219
8.320e-08,0.002
8.360e-08,0.002
8.400e-08,0.002
8.440e-08,-7.8125e-06
8.480e-08,-0.002
8.520e-08,-0.004
8.560e-08,-0.00400781
8.600e-08,-0.00400781
8.640e-08,0
8.680e-08,0.002
8.720e-08,0.00399219
8.760e-08,0.002
8.800e-08,-7.8125e-06
8.840e-08,-7.8125e-06
8.880e-08,0
8.920e-08,0
8.960e-08,-0.002
9.000e-08,-0.002
9.040e-08,-0.002
9.080e-08,-7.8125e-06
9.120e-08,-7.8125e-06
9.160e-08,0.002
9.200e-08,-7.8125e-06
9.240e-08,0.002
9.280e-08,-7.8125e-06
9.320e-08,0
9.360e-08,0
9.400e-08,-7.8125e-06
9.440e-08,0
9.480e-08,-7.8125e-06
9.520e-08,0
9.560e-08,-0.00200781
9.600e-08,-7.8125e-06
9.640e-08,-7.8125e-06
9.680e-08,-0.00200781
9.720e-08,-7.8125e-06
9.760e-08,0.00199219
9.800e-08,0.00199219
9.840e-08,0.004
9.880e-08,0.00199219
9.920e-08,-7.8125e-06
9.960e-08,-0.002
1.000e-07,-0.00200781
1.004e-07,-0.00200781
1.008e-07,-0.00400781
1.012e-07,-0.006
1.016e-07,-0.004
1.020e-07,-7.8125e-06
1.024e-07,0.00199219
1.028e-07,0.002
1.032e-07,0.00199219
1.036e-07,-7.8125e-06
1.040e-07,-0.002
1.044e-07,-0.002
1.048e-07,-0.00400781
1.052e-07,-0.00400781
1.056e-07,-0.002
1.060e-07,-0.00200781
1.064e-07,-0.002
1.068e-07,0
1.072e-07,-7.8125e-06
1.076e-07,-7.8125e-06
1.080e-07,0
1.084e-07,0
1.088e-07,0.002
1.092e-07,0
1.096e-07,-0.00200781
1.100e-07,-0.00400781
1.104e-07,-0.002
1.108e-07,-0.00200781
1.112e-07,-0.002
1.116e-07,-0.002
1.120e-07,-0.004
1.124e-07,-0.002
1.128e-07,0
1.132e-07,0.002
1.136e-07,0.00199219
1.140e-07,0.002
1.144e-07,0
1.148e-07,-0.00200781
1.152e-07,-0.004
1.156e-07,-0.004
1.160e-07,-0.004
1.164e-07,0
1.168e-07,-7.8125e-06
1.172e-07,-7.8125e-06
1.176e-07,0.002
1.180e-07,0.00199219
1.184e-07,-0.00200781
1.188e-07,-0.00200781
1.192e-07,-0.00400781
1.196e-07,-0.00400781
1.200e-07,-0.00400781
1.204e-07,-0.004
1.208e-07,-0.00200781
1.212e-07,-0.002
1.216e-07,0
1.220e-07,0
1.224e-07,0
1.228e-07,0
1.232e-07,-0.002
1.236e-07,-0.002
1.240e-07,-0.002
1.244e-07,-7.8125e-06
1.248e-07,-0.002
1.252e-07,-0.002
1.256e-07,-0.002
1.260e-07,-0.00200781
1.264e-07,-0.002
1.268e-07,-0.002
1.272e-07,-0.00200781
1.276e-07,0
1.280e-07,-7.8125e-06
1.284e-07,0
1.288e-07,0.002
1.292e-07,0
1.296e-07,-7.8125e-06
1.300e-07,-0.002
1.304e-07,-0.004
1.308e-07,-0.004
1.312e-07,-0.00400781
1.316e-07,-0.00400781
1.320e-07,-0.00200781
1.324e-07,-7.8125e-06
1.328e-07,0.00199219
1.332e-07,-7.8125e-06
1.336e-07,0.00199219
1.340e-07,0
1.344e-07,0
1.348e-07,-0.002
1.352e-07,-0.00400781
1.356e-07,-0.00400781
1.360e-07,-0.002
1.364e-07,-0.00200781
1.368e-07,-0.00400781
1.372e-07,-0.00200781
1.376e-07,-0.002
1.380e-07,0
1.384e-07,0
1.388e-07,-7.8125e-06
1.392e-07,-0.002
1.396e-07,-0.002
1.400e-07,-0.004
1.404e-07,0
1.408e-07,-0.002
1.412e-07,-0.00400781
1.416e-07,-0.002
1.420e-07,-0.002
1.424e-07,-0.002
1.428e-07,0.00199219
1.432e-07,0.00199219
1.436e-07,0
1.440e-07,-0.002
1.444e-07,-0.002
1.448e-07,-0.00400781
1.452e-07,-0.002
1.456e-07,-0.004
1.460e-07,-0.00400781
1.464e-07,-0.00400781
1.468e-07,-0.004
1.472e-07,0
1.476e-07,0.002
1.480e-07,0.00199219
1.484e-07,0
1.488e-07,-7.8125e-06
1.492e-07,-0.002
1.496e-07,-0.00400781
1.500e-07,-0.00600781
1.504e-07,-0.004
1.508e-07,-0.00400781
1.512e-07,-0.004
1.516e-07,0.002
1.520e-07,0
1.524e-07,0
1.528e-07,-7.8125e-06
1.532e-07,0
1.536e-07,-0.002
1.540e-07,-0.00200781
1.544e-07,-0.002
1.548e-07,-0.004
1.552e-07,-0.00400781
1.556e-07,-0.004
1.560e-07,-0.004
1.564e-07,-0.00400781
1.568e-07,-0.002
1.572e-07,-0.00200781
1.576e-07,-7.8125e-06
1.580e-07,0
1.584e-07,-7.8125e-06
1.588e-07,-7.8125e-06
1.592e-07,-0.00200781
1.596e-07,-0.002
1.600e-07,-0.00400781
1.604e-07,-0.00400781
1.608e-07,-0.004
1.612e-07,-0.00600781
1.616e-07,-0.004
1.620e-07,-0.002
1.624e-07,-7.8125e-06
1.628e-07,0.00199219
1.632e-07,0.002
1.636e-07,-7.8125e-06
1.640e-07,-0.00200781
1.644e-07,-0.00200781
1.648e-07,-0.00200781
1.652e-07,-0.004
1.656e-07,-0.00400781
1.660e-07,-0.004
1.664e-07,-0.00200781
1.668e-07,-0.002
1.672e-07,0
1.676e-07,-7.8125e-06
1.680e-07,0
1.684e-07,-7.8125e-06
1.688e-07,-7.8125e-06
1.692e-07,-0.00200781
1.696e-07,-0.00200781
1.700e-07,-0.00400781
1.704e-07,-0.004
1.708e-07,-0.004
1.712e-07,-0.002
1.716e-07,-0.002
1.720e-07,-0.00400781
1.724e-07,-0.004
1.728e-07,-7.8125e-06
1.732e-07,0.00199219
1.736e-07,-0.00200781
1.740e-07,0
1.744e-07,-0.002
1.748e-07,-0.00200781
1.752e-07,-0.00400781
1.756e-07,-0.006
1.760e-07,-0.004
1.764e-07,-0.004
1.768e-07,-0.002
1.772e-07,0.002
1.776e-07,0.002
1.780e-07,-7.8125e-06
1.784e-07,0.002
1.788e-07,-7.8125e-06
1.792e-07,-0.002
1.796e-07,-0.004
1.800e-07,-0.004
1.804e-07,-0.004
1.808e-07,-0.00400781
1.812e-07,-0.00400781
1.816e-07,-0.002
1.820e-07,0
1.824e-07,-7.8125e-06
1.828e-07,0.00199219
1.832e-07,0
1.836e-07,-0.004
1.840e-07,-0.00400781
1.844e-07,-0.004
1.848e-07,-0.00200781
1.852e-07,-0.00200781
1.856e-07,-0.002
1.860e-07,-0.00200781
1.864e-07,-0.00200781
1.868e-07,-0.00200781
1.872e-07,-7.8125e-06
1.876e-07,-0.00200781
1.880e-07,-0.002
1.884e-07,0
1.888e-07,0
1.892e-07,0
1.896e-07,-0.002
1.900e-07,-0.00200781
1.904e-07,-0.004
1.908e-07,-0.00400781
1.912e-07,-0.00200781
1.916e-07,-0.00200781
1.920e-07,-7.8125e-06
1.924e-07,-7.8125e-06
1.928e-07,0.002
1.932e-07,-7.8125e-06
1.936e-07,-7.8125e-06
1.940e-07,0
1.944e-07,-0.00200781
1.948e-07,-0.00400781
1.952e-07,-0.00400781
1.956e-07,-0.00400781
1.960e-07,-0.00400781
1.964e-07,-0.002
1.968e-07,-0.002
1.972e-07,-0.002
1.976e-07,0
1.980e-07,0.00199219
1.984e-07,0.00199219
1.988e-07,0.002
1.992e-07,0
1.996e-07,-0.002
2.000e-07,-0.002

